SmartBearSoftwarePages\viewAllOrdersPage.class
SmartBearSoftwarePages\OrderPage.class
SmartBearSoftwarePages\LoginPage.class
runners\Runner.class
SmartBearSoftwareSteps\InvalidateLoginSteps.class
utilities\Driver.class
SmartBearSoftwarePages\Texts.class
SmartBearSoftwareSteps\Hooks.class
utilities\ScreenshotUtils.class
utilities\ConfigReader.class
utilities\Waiter.class
SmartBearSoftwareSteps\ValidateSmartBearSoftwareSteps.class
