C:\Users\jafet\IdeaProjects\CucumberFrameworkProject2\src\test\java\SmartBearSoftwarePages\LoginPage.java
C:\Users\jafet\IdeaProjects\CucumberFrameworkProject2\src\test\java\runners\Runner.java
C:\Users\jafet\IdeaProjects\CucumberFrameworkProject2\src\test\java\SmartBearSoftwarePages\OrderPage.java
C:\Users\jafet\IdeaProjects\CucumberFrameworkProject2\src\test\java\utilities\ScreenshotUtils.java
C:\Users\jafet\IdeaProjects\CucumberFrameworkProject2\src\test\java\SmartBearSoftwarePages\viewAllOrdersPage.java
C:\Users\jafet\IdeaProjects\CucumberFrameworkProject2\src\test\java\SmartBearSoftwareSteps\InvalidateLoginSteps.java
C:\Users\jafet\IdeaProjects\CucumberFrameworkProject2\src\test\java\SmartBearSoftwareSteps\ValidateSmartBearSoftwareSteps.java
C:\Users\jafet\IdeaProjects\CucumberFrameworkProject2\src\test\java\utilities\ConfigReader.java
C:\Users\jafet\IdeaProjects\CucumberFrameworkProject2\src\test\java\utilities\Waiter.java
C:\Users\jafet\IdeaProjects\CucumberFrameworkProject2\src\test\java\SmartBearSoftwarePages\Texts.java
C:\Users\jafet\IdeaProjects\CucumberFrameworkProject2\src\test\java\SmartBearSoftwareSteps\Hooks.java
C:\Users\jafet\IdeaProjects\CucumberFrameworkProject2\src\test\java\utilities\Driver.java
